[gd_scene load_steps=9 format=2]

[ext_resource path="res://sprite/mole.png" type="Texture" id=1]
[ext_resource path="res://player.gd" type="Script" id=2]
[ext_resource path="res://audio/nom.wav" type="AudioStream" id=3]
[ext_resource path="res://audio/hup.wav" type="AudioStream" id=4]
[ext_resource path="res://audio/yeet.wav" type="AudioStream" id=5]
[ext_resource path="res://audio/hungry.wav" type="AudioStream" id=6]

[sub_resource type="CapsuleShape2D" id=1]
radius = 11.3951
height = 17.7535

[sub_resource type="CircleShape2D" id=2]
radius = 85.2986

[node name="Player" type="Area2D"]
collision_layer = 8
collision_mask = 6
script = ExtResource( 2 )

[node name="Head" type="Node2D" parent="."]
position = Vector2( 0, 11.034 )
scale = Vector2( 0.05, 0.05 )

[node name="Sprite" type="Sprite" parent="."]
position = Vector2( -0.794601, 0 )
texture = ExtResource( 1 )

[node name="TouchCollider" type="CollisionShape2D" parent="."]
visible = false
shape = SubResource( 1 )

[node name="VisionCollider" type="CollisionShape2D" parent="."]
visible = false
shape = SubResource( 2 )

[node name="BuildTimer" type="Timer" parent="."]
wait_time = 10.0
one_shot = true

[node name="EatSound" type="AudioStreamPlayer" parent="."]
stream = ExtResource( 3 )

[node name="GetSound" type="AudioStreamPlayer" parent="."]
stream = ExtResource( 4 )

[node name="ThrowSound" type="AudioStreamPlayer" parent="."]
stream = ExtResource( 5 )

[node name="GreedyPlayer" type="AudioStreamPlayer" parent="."]
stream = ExtResource( 6 )

[connection signal="area_shape_entered" from="." to="." method="_on_Player_area_shape_entered"]
