[gd_scene load_steps=4 format=2]

[ext_resource path="res://fonts/gui_font.tres" type="DynamicFont" id=1]
[ext_resource path="res://text_floater.gd" type="Script" id=2]

[sub_resource type="Animation" id=1]
resource_name = "float"
length = 1.3
tracks/0/type = "value"
tracks/0/path = NodePath(".:modulate")
tracks/0/interp = 1
tracks/0/loop_wrap = true
tracks/0/imported = false
tracks/0/enabled = true
tracks/0/keys = {
"times": PoolRealArray( 0, 1.3 ),
"transitions": PoolRealArray( 1, 1 ),
"update": 0,
"values": [ Color( 0.988235, 0.517647, 0.517647, 1 ), Color( 0.988235, 0.517647, 0.517647, 0.0352941 ) ]
}
tracks/1/type = "value"
tracks/1/path = NodePath(".:rect_position")
tracks/1/interp = 1
tracks/1/loop_wrap = true
tracks/1/imported = false
tracks/1/enabled = true
tracks/1/keys = {
"times": PoolRealArray( 0, 1.3 ),
"transitions": PoolRealArray( 1, 1 ),
"update": 0,
"values": [ Vector2( 0, 0 ), Vector2( 0, -30 ) ]
}
tracks/2/type = "method"
tracks/2/path = NodePath("..")
tracks/2/interp = 1
tracks/2/loop_wrap = true
tracks/2/imported = false
tracks/2/enabled = true
tracks/2/keys = {
"times": PoolRealArray( 1.3 ),
"transitions": PoolRealArray( 1 ),
"values": [ {
"args": [  ],
"method": "queue_free"
} ]
}

[node name="TextFloater" type="Node2D"]
script = ExtResource( 2 )

[node name="CenterContainer" type="CenterContainer" parent="."]
anchor_left = 0.5
anchor_top = 0.5
anchor_right = 0.5
anchor_bottom = 0.5
margin_left = -400.0
margin_top = -22.5
margin_right = 400.0
margin_bottom = 22.5
__meta__ = {
"_edit_use_anchors_": false
}

[node name="Label" type="Label" parent="CenterContainer"]
modulate = Color( 0.988235, 0.517647, 0.517647, 1 )
margin_right = 800.0
margin_bottom = 45.0
rect_min_size = Vector2( 800, 0 )
custom_fonts/font = ExtResource( 1 )
text = "error"
align = 1
valign = 1
__meta__ = {
"_edit_use_anchors_": false
}

[node name="AnimationPlayer" type="AnimationPlayer" parent="CenterContainer/Label"]
anims/float = SubResource( 1 )
